Introduction to data analysis and visualization with R - 4 Reading tabular data from disk
…
Warning

The common file extensions .csv and .tsv are useful and suggestive: they can indicate that the data are comma- or tab-separated. However, one must bear in mind that these are mere naming conventions which are not forced in any way. That is, while not necessarily a good idea, it is perfectly possible to save comma-separated data in a file called mydata.tsv, or tab-separated data in mydata.csv. Furthermore, plain text files often have extensions such as .txt (“text”) or .dat (“data”), neither of which reveal what form the data were stored in. To be absolutely sure, one must open the file in a text editor such as RStudio’s top left editor panel, and see what was used as a delimiter. If you open a file like this, make absolutely sure not to modify and save it accidentally. Doing so compromises your hard-won data, which then no longer accurately capture your true observations.

4.3 The tibble data structure

The above raw formats are not yet amenable to processing within R. To make it so, we first need to import them. For delimited files there is a convenient function, read_delim, which makes this especially simple:4

read_delim("island-FL.csv", delim = ",")

# A tibble: 223 × 4
   habitat species      size  shape
   <chr>   <chr>       <dbl>  <dbl>
 1 humid   ustulatus    17.1 -0.029
 2 humid   ustulatus    20.1 -0.001
 3 humid   ustulatus    16.3  0.014
 4 arid    calvus       13.7 -0.043
 5 humid   nux          21.9 -0.042
 6 humid   ustulatus    16.8 -0.023
 7 humid   ustulatus    19.2  0.014
 8 humid   ustulatus    16.0  0.042
 9 arid    galapaganus  18.9  0.011
10 humid   nux          26.6  0    
# ℹ 213 more rows
…
Here snailDat$size is really just a vector, and can be treated as such. For example, to get the 9th entry of this vector, we can use the usual bracket notation:

snailDat$size[9]

[1] 18.894

The result is an ordinary numerical value.

Finally, let us take one more look at the output again:

print(snailDat)

# A tibble: 223 × 4
   habitat species      size  shape
   <chr>   <chr>       <dbl>  <dbl>
 1 humid   ustulatus    17.1 -0.029
 2 humid   ustulatus    20.1 -0.001
 3 humid   ustulatus    16.3  0.014
 4 arid    calvus       13.7 -0.043
 5 humid   nux          21.9 -0.042
 6 humid   ustulatus    16.8 -0.023
 7 humid   ustulatus    19.2  0.014
 8 humid   ustulatus    16.0  0.042
 9 arid    galapaganus  18.9  0.011
10 humid   nux          26.6  0    
# ℹ 213 more rows

When displaying large tibbles, R will not dump all the data at you. Instead, it will display the first 10 rows, with a message indicating how many more rows remain (in our case, we have ...with 213 more rows written at the end of the printout). The system is still aware of the other rows; it just does not show them. To get a full view of a tibble in a more digestible, spreadsheet-like style, one can use the view function. Try running view(snailDat) and see what happens!

4.4 Reading delimited files

We have seen that the function read_delim works by taking two inputs: the name of the file to read, and the delimiter character. So to read a comma-separated file, we can write

read_delim("island-FL.csv", delim = ",")

# A tibble: 223 × 4
   habitat species      size  shape
   <chr>   <chr>       <dbl>  <dbl>
 1 humid   ustulatus    17.1 -0.029
 2 humid   ustulatus    20.1 -0.001
 3 humid   ustulatus    16.3  0.014
 4 arid    calvus       13.7 -0.043
 5 humid   nux          21.9 -0.042
 6 humid   ustulatus    16.8 -0.023
 7 humid   ustulatus    19.2  0.014
 8 humid   ustulatus    16.0  0.042
 9 arid    galapaganus  18.9  0.011
10 humid   nux          26.6  0    
# ℹ 213 more rows

Similarly, in case we want to read a percent-separated file such as islands-FL.psv, all we need to do is change the delimiter:

read_delim("island-FL.psv", delim = "%")

# A tibble: 223 × 4
   habitat species      size  shape
   <chr>   <chr>       <dbl>  <dbl>
 1 humid   ustulatus    17.1 -0.029
 2 humid   ustulatus    20.1 -0.001
 3 humid   ustulatus    16.3  0.014
 4 arid    calvus       13.7 -0.043
 5 humid   nux          21.9 -0.042
 6 humid   ustulatus    16.8 -0.023
 7 humid   ustulatus    19.2  0.014
 8 humid   ustulatus    16.0  0.042
 9 arid    galapaganus  18.9  0.011
10 humid   nux          26.6  0    
# ℹ 213 more rows

The output is exactly as before, since the file contained the same information (just represented differently due to the different delimiter).

To read a tab-separated file, remember not to simply press the tabulator key between the quotes of the delim argument. Instead, R uses the character string "\t" to represent a single press of the tabulator:

read_delim("island-FL.tsv", delim = "\t")

# A tibble: 223 × 4
   habitat species      size  shape
   <chr>   <chr>       <dbl>  <dbl>
 1 humid   ustulatus    17.1 -0.029
 2 humid   ustulatus    20.1 -0.001
 3 humid   ustulatus    16.3  0.014
 4 arid    calvus       13.7 -0.043
 5 humid   nux          21.9 -0.042
 6 humid   ustulatus    16.8 -0.023
 7 humid   ustulatus    19.2  0.014
 8 humid   ustulatus    16.0  0.042
 9 arid    galapaganus  18.9  0.011
10 humid   nux          26.6  0    
# ℹ 213 more rows

What happens if the wrong delimiter is specified—for instance, if we type read_delim("island-FL.csv", delim = "%")? In that case R will look for the % character to separate the columns, but since these do not occur anywhere, each row will be interpreted as a single column entry in its entirety:

read_delim("island-FL.csv", delim = "%")

# A tibble: 223 × 1
   `habitat,species,size,shape` 
   <chr>                        
 1 humid,ustulatus,17.088,-0.029
 2 humid,ustulatus,20.06,-0.001 
 3 humid,ustulatus,16.34,0.014  
 4 arid,calvus,13.734,-0.043    
 5 humid,nux,21.898,-0.042      
 6 humid,ustulatus,16.848,-0.023
 7 humid,ustulatus,19.162,0.014 
 8 humid,ustulatus,16.017,0.042 
 9 arid,galapaganus,18.894,0.011
10 humid,nux,26.59,0            
# ℹ 213 more rows

As seen, we have a tibble with a single column called `habitat,species,size,shape1,shape2`, which has the type <chr> (character string). One must beware of such mistakes, because the computer will not signal any errors: for all it cares, we did intend % to be the delimiter. However, one will not be able to properly work with the data subsequently if it gets loaded in this mistaken form.

The CSV and TSV file formats are so common that there are shorthands available for loading them. Instead of writing read_delim("island-FL.csv", delim = ","), one can equivalently type read_csv("island-FL.csv") for the same effect:

read_csv("island-FL.csv")

# A tibble: 223 × 4
   habitat species      size  shape
   <chr>   <chr>       <dbl>  <dbl>
 1 humid   ustulatus    17.1 -0.029
 2 humid   ustulatus    20.1 -0.001
 3 humid   ustulatus    16.3  0.014
 4 arid    calvus       13.7 -0.043
 5 humid   nux          21.9 -0.042
 6 humid   ustulatus    16.8 -0.023
 7 humid   ustulatus    19.2  0.014
 8 humid   ustulatus    16.0  0.042
 9 arid    galapaganus  18.9  0.011
10 humid   nux          26.6  0    
# ℹ 213 more rows

Similarly, read_tsv("island-FL.tsv") is an equivalent shorthand to read_delim("island-FL.tsv", delim = "\t"):

read_tsv("island-FL.tsv")

# A tibble: 223 × 4
   habitat species      size  shape
   <chr>   <chr>       <dbl>  <dbl>
 1 humid   ustulatus    17.1 -0.029
 2 humid   ustulatus    20.1 -0.001
 3 humid   ustulatus    16.3  0.014
 4 arid    calvus       13.7 -0.043
 5 humid   nux          21.9 -0.042
 6 humid   ustulatus    16.8 -0.023
 7 humid   ustulatus    19.2  0.014
 8 humid   ustulatus    16.0  0.042
 9 arid    galapaganus  18.9  0.011
10 humid   nux          26.6  0    
# ℹ 213 more rows
…
If one tries to read this file either with read_delim("island-FL-nohead.csv", delim = ",") or the shorthand read_csv("island-FL-nohead.csv"), we get the following:

read_delim("island-FL-nohead.csv", delim = ",")

# A tibble: 222 × 4
   humid ustulatus   `17.088` `-0.029`
   <chr> <chr>          <dbl>    <dbl>
 1 humid ustulatus       20.1   -0.001
 2 humid ustulatus       16.3    0.014
 3 arid  calvus          13.7   -0.043
 4 humid nux             21.9   -0.042
 5 humid ustulatus       16.8   -0.023
 6 humid ustulatus       19.2    0.014
 7 humid ustulatus       16.0    0.042
 8 arid  galapaganus     18.9    0.011
 9 humid nux             26.6    0    
10 arid  calvus          17.9   -0.024
# ℹ 212 more rows

The fact that a header is missing is obvious to a human reading the file—but not to the computer, which simply took the first row to be the header names anyway and interpreted the data in there as if they were column names. To avoid doing this, one can pass col_names = FALSE as an argument to either read_delim, read_csv, or read_tsv. The col_names argument is set by default to TRUE; to override it, we must explicitly change it like this:

read_delim("island-FL-nohead.csv", delim = ",", col_names = FALSE)

# A tibble: 223 × 4
   X1    X2             X3     X4
   <chr> <chr>       <dbl>  <dbl>
 1 humid ustulatus    17.1 -0.029
 2 humid ustulatus    20.1 -0.001
 3 humid ustulatus    16.3  0.014
 4 arid  calvus       13.7 -0.043
 5 humid nux          21.9 -0.042
 6 humid ustulatus    16.8 -0.023
 7 humid ustulatus    19.2  0.014
 8 humid ustulatus    16.0  0.042
 9 arid  galapaganus  18.9  0.011
10 humid nux          26.6  0    
# ℹ 213 more rows

While this works, the column names now default to the moderately informative labels X1, X2, and so on. In fact, one can use the col_names argument to explicitly specify a vector of character strings, which are then interpreted as the names to be given to the columns in case no header information exists within the file itself. For example:

read_delim("island-FL-nohead.csv", delim = ",",
           col_names = c("habitat", "species", "size", "shape"))

# A tibble: 223 × 4
   habitat species      size  shape
   <chr>   <chr>       <dbl>  <dbl>
 1 humid   ustulatus    17.1 -0.029
 2 humid   ustulatus    20.1 -0.001
 3 humid   ustulatus    16.3  0.014
 4 arid    calvus       13.7 -0.043
 5 humid   nux          21.9 -0.042
 6 humid   ustulatus    16.8 -0.023
 7 humid   ustulatus    19.2  0.014
 8 humid   ustulatus    16.0  0.042
 9 arid    galapaganus  18.9  0.011
10 humid   nux          26.6  0    
# ℹ 213 more rows

And now these data are identical to our earlier snailDat tibble.

4.6 Excel tables

Although their use is discouraged in science, one should know how to read data from an Excel spreadsheet. To do this, one needs to load the readxl package. This package is part of the tidyverse, but does not get automatically attached when running library(tidyverse). Therefore, we first load the package:

library(readxl)

We can now load Excel files with the function read_excel(). At the start, we downloaded an Excel version of the land snail data, called island-FL.xlsx. It holds the exact same data as the original CSV file, just saved in Excel format for instructive purposes. Let us load this file:

read_excel("island-FL.xlsx", sheet = 1)

# A tibble: 223 × 4
   habitat species      size  shape
   <chr>   <chr>       <dbl>  <dbl>
 1 humid   ustulatus    17.1 -0.029
 2 humid   ustulatus    20.1 -0.001
 3 humid   ustulatus    16.3  0.014
 4 arid    calvus       13.7 -0.043
 5 humid   nux          21.9 -0.042
 6 humid   ustulatus    16.8 -0.023
 7 humid   ustulatus    19.2  0.014
 8 humid   ustulatus    16.0  0.042
 9 arid    galapaganus  18.9  0.011
10 humid   nux          26.6  0    
# ℹ 213 more rows
…
