5 Basic data manipulation – Introduction to data analysis and visualization with R
…
As seen from the message output above, the dplyr package is part of the tidyverse and gets loaded by default. It allows one to arrange and manipulate data efficiently. Some of the functions manipulate the data based on its columns, and others do so based on its rows. The basic column-manipulating functions one should know are select, rename, and mutate. The row-manipulating ones are filter, slice, arrange, and distinct. Each of these functions work similarly in that:

The first argument they take is the data, in the form of a tibble;

Their other arguments are given in terms of the column names of the data;

They return another tibble.

We now explain each of these below. We will use the island-FL.csv data file we worked with in Chapter 4:

snails <- read_delim("island-FL.csv", delim = ",")
print(snails)

# A tibble: 223 × 4
   habitat species      size  shape
   <chr>   <chr>       <dbl>  <dbl>
 1 humid   ustulatus    17.1 -0.029
 2 humid   ustulatus    20.1 -0.001
 3 humid   ustulatus    16.3  0.014
 4 arid    calvus       13.7 -0.043
 5 humid   nux          21.9 -0.042
 6 humid   ustulatus    16.8 -0.023
 7 humid   ustulatus    19.2  0.014
 8 humid   ustulatus    16.0  0.042
 9 arid    galapaganus  18.9  0.011
10 humid   nux          26.6  0    
# ℹ 213 more rows

5.1.1 select

This function chooses columns of the data. The second and subsequent arguments of the function are the columns which should be retained. For example, select(snails, species) will keep only the species column of snails:

select(snails, species)

# A tibble: 223 × 1
   species    
   <chr>      
 1 ustulatus  
 2 ustulatus  
 3 ustulatus  
 4 calvus     
 5 nux        
 6 ustulatus  
 7 ustulatus  
 8 ustulatus  
 9 galapaganus
10 nux        
# ℹ 213 more rows

It is also possible to deselect columns, by prepending an exclamation mark (!) in front of the column names. To drop the species column, we can type:

select(snails, !species)

# A tibble: 223 × 3
   habitat  size  shape
   <chr>   <dbl>  <dbl>
 1 humid    17.1 -0.029
 2 humid    20.1 -0.001
 3 humid    16.3  0.014
 4 arid     13.7 -0.043
 5 humid    21.9 -0.042
 6 humid    16.8 -0.023
 7 humid    19.2  0.014
 8 humid    16.0  0.042
 9 arid     18.9  0.011
10 humid    26.6  0    
# ℹ 213 more rows

Now we are left with only the columns habitat, size, and shape.

There are several other options within select, which mostly help with selecting several columns at a time fulfilling certain criteria. The collection of these options and methods is called tidy selection. First of all, it is possible to select a range of columns using the colon (:) operator. The following selection will choose the columns species and shape, and everything in between (which in this case is the column size):

select(snails, species:shape)

# A tibble: 223 × 3
   species      size  shape
   <chr>       <dbl>  <dbl>
 1 ustulatus    17.1 -0.029
 2 ustulatus    20.1 -0.001
 3 ustulatus    16.3  0.014
 4 calvus       13.7 -0.043
 5 nux          21.9 -0.042
 6 ustulatus    16.8 -0.023
 7 ustulatus    19.2  0.014
 8 ustulatus    16.0  0.042
 9 galapaganus  18.9  0.011
10 nux          26.6  0    
# ℹ 213 more rows

Second, tidy selection allows one to specify, as character strings, what the column names should start or end with, using starts_with and ends_with:

select(snails, starts_with("s"))

# A tibble: 223 × 3
   species      size  shape
   <chr>       <dbl>  <dbl>
 1 ustulatus    17.1 -0.029
 2 ustulatus    20.1 -0.001
 3 ustulatus    16.3  0.014
 4 calvus       13.7 -0.043
 5 nux          21.9 -0.042
 6 ustulatus    16.8 -0.023
 7 ustulatus    19.2  0.014
 8 ustulatus    16.0  0.042
 9 galapaganus  18.9  0.011
10 nux          26.6  0    
# ℹ 213 more rows

select(snails, starts_with("sh"))

# A tibble: 223 × 1
    shape
    <dbl>
 1 -0.029
 2 -0.001
 3  0.014
 4 -0.043
 5 -0.042
 6 -0.023
 7  0.014
 8  0.042
 9  0.011
10  0    
# ℹ 213 more rows

select(snails, ends_with("e"))

# A tibble: 223 × 2
    size  shape
   <dbl>  <dbl>
 1  17.1 -0.029
 2  20.1 -0.001
 3  16.3  0.014
 4  13.7 -0.043
 5  21.9 -0.042
 6  16.8 -0.023
 7  19.2  0.014
 8  16.0  0.042
 9  18.9  0.011
10  26.6  0    
# ℹ 213 more rows

select(snails, ends_with("pe"))

# A tibble: 223 × 1
    shape
    <dbl>
 1 -0.029
 2 -0.001
 3  0.014
 4 -0.043
 5 -0.042
 6 -0.023
 7  0.014
 8  0.042
 9  0.011
10  0    
# ℹ 213 more rows

Similarly, the function contains can select columns which contain some string anywhere in their names. For example, select(snails, ends_with("pe")) above only selected the shape column, but select(snails, contains("pe")) additionally selects species:

select(snails, contains("pe"))

# A tibble: 223 × 2
   species      shape
   <chr>        <dbl>
 1 ustulatus   -0.029
 2 ustulatus   -0.001
 3 ustulatus    0.014
 4 calvus      -0.043
 5 nux         -0.042
 6 ustulatus   -0.023
 7 ustulatus    0.014
 8 ustulatus    0.042
 9 galapaganus  0.011
10 nux          0    
# ℹ 213 more rows

Third, one can combine these selection methods using the & (“and”), | (“or”), and ! (“not”) logical operators. To select columns called either size or shape (i.e., selecting those two and no others):

select(snails, size | shape)

# A tibble: 223 × 2
    size  shape
   <dbl>  <dbl>
 1  17.1 -0.029
 2  20.1 -0.001
 3  16.3  0.014
 4  13.7 -0.043
 5  21.9 -0.042
 6  16.8 -0.023
 7  19.2  0.014
 8  16.0  0.042
 9  18.9  0.011
10  26.6  0    
# ℹ 213 more rows

To select all columns which start with "s" but do not contain the letter "z" in their names:

select(snails, starts_with("s") & !contains("z"))

# A tibble: 223 × 2
   species      shape
   <chr>        <dbl>
 1 ustulatus   -0.029
 2 ustulatus   -0.001
 3 ustulatus    0.014
 4 calvus      -0.043
 5 nux         -0.042
 6 ustulatus   -0.023
 7 ustulatus    0.014
 8 ustulatus    0.042
 9 galapaganus  0.011
10 nux          0    
# ℹ 213 more rows

The following selects columns that either contain "ha" in their names, or end with the letter "s":

select(snails, contains("ha") | ends_with("s"))

# A tibble: 223 × 3
   habitat  shape species    
   <chr>    <dbl> <chr>      
 1 humid   -0.029 ustulatus  
 2 humid   -0.001 ustulatus  
 3 humid    0.014 ustulatus  
 4 arid    -0.043 calvus     
 5 humid   -0.042 nux        
 6 humid   -0.023 ustulatus  
 7 humid    0.014 ustulatus  
 8 humid    0.042 ustulatus  
 9 arid     0.011 galapaganus
10 humid    0     nux        
# ℹ 213 more rows

One can even combine range selection with the logical operations above. For instance, to select the range from habitat to species, as well as any columns whose name contains the letter "z":

select(snails, habitat:species | contains("z"))

# A tibble: 223 × 3
   habitat species      size
   <chr>   <chr>       <dbl>
 1 humid   ustulatus    17.1
 2 humid   ustulatus    20.1
 3 humid   ustulatus    16.3
 4 arid    calvus       13.7
 5 humid   nux          21.9
 6 humid   ustulatus    16.8
 7 humid   ustulatus    19.2
 8 humid   ustulatus    16.0
 9 arid    galapaganus  18.9
10 humid   nux          26.6
# ℹ 213 more rows

Finally, there is a way to select all columns, with the everything helper function:

select(snails, everything())

# A tibble: 223 × 4
   habitat species      size  shape
   <chr>   <chr>       <dbl>  <dbl>
 1 humid   ustulatus    17.1 -0.029
 2 humid   ustulatus    20.1 -0.001
 3 humid   ustulatus    16.3  0.014
 4 arid    calvus       13.7 -0.043
 5 humid   nux          21.9 -0.042
 6 humid   ustulatus    16.8 -0.023
 7 humid   ustulatus    19.2  0.014
 8 humid   ustulatus    16.0  0.042
 9 arid    galapaganus  18.9  0.011
10 humid   nux          26.6  0    
# ℹ 213 more rows

5.1.2 rename

The rename function simply gives new names to existing columns. The first argument, as always, is the tibble in which the column(s) should be renamed. The subsequent arguments follow the pattern new_name = old_name in replacing column names. For example, in the land snail data, the arid and humid habitats are often referred to as arid or humid zones. To rename habitat to zone, we simply write:

rename(snails, zone = habitat)

# A tibble: 223 × 4
   zone  species      size  shape
   <chr> <chr>       <dbl>  <dbl>
 1 humid ustulatus    17.1 -0.029
 2 humid ustulatus    20.1 -0.001
 3 humid ustulatus    16.3  0.014
 4 arid  calvus       13.7 -0.043
 5 humid nux          21.9 -0.042
 6 humid ustulatus    16.8 -0.023
 7 humid ustulatus    19.2  0.014
 8 humid ustulatus    16.0  0.042
 9 arid  galapaganus  18.9  0.011
10 humid nux          26.6  0    
# ℹ 213 more rows

Multiple columns can also be renamed. To change all column names to start with capital letters:

rename(snails,
       Habitat = habitat, Species = species, Size = size, Shape = shape)

# A tibble: 223 × 4
   Habitat Species      Size  Shape
   <chr>   <chr>       <dbl>  <dbl>
 1 humid   ustulatus    17.1 -0.029
 2 humid   ustulatus    20.1 -0.001
 3 humid   ustulatus    16.3  0.014
 4 arid    calvus       13.7 -0.043
 5 humid   nux          21.9 -0.042
 6 humid   ustulatus    16.8 -0.023
 7 humid   ustulatus    19.2  0.014
 8 humid   ustulatus    16.0  0.042
 9 arid    galapaganus  18.9  0.011
10 humid   nux          26.6  0    
# ℹ 213 more rows

5.1.3 mutate

The mutate function allows us to create new columns from existing ones. We may apply any function or operator we learned about to existing columns, and the result of the computation will go into the new column. We do this in the second argument of mutate (the first, as always, is the data tibble) by first giving a name to the column, then writing =, and then the desired computation. For example, we could create a new column indicating whether a snail is “large” (has a shell size above some threshold—say, 25) or “small”. We can do this using the ifelse function within mutate:

mutate(snails, shellSize = ifelse(size > 25, "large", "small"))

# A tibble: 223 × 5
   habitat species      size  shape shellSize
   <chr>   <chr>       <dbl>  <dbl> <chr>    
 1 humid   ustulatus    17.1 -0.029 small    
 2 humid   ustulatus    20.1 -0.001 small    
 3 humid   ustulatus    16.3  0.014 small    
 4 arid    calvus       13.7 -0.043 small    
 5 humid   nux          21.9 -0.042 small    
 6 humid   ustulatus    16.8 -0.023 small    
 7 humid   ustulatus    19.2  0.014 small    
 8 humid   ustulatus    16.0  0.042 small    
 9 arid    galapaganus  18.9  0.011 small    
10 humid   nux          26.6  0     large    
# ℹ 213 more rows

The original columns of the data are retained, but we now also have the additional shellSize column.

One very common transformation on quantities such as size and shape is to standardize them. There are various methods for standardization, but all of them entail shifting the data in some way, and making them unitless. One example for such standardization is to change the measurement scale such that all measured values fall in the range from 0 to 1. This can be achieved in two steps: first, we subtract off the minimum value in the data from every entry (this ensures that no point falls below 0), and then we divide each of these shifted values by the difference between the maximum and the minimum values (which squeezes the points between 0 and 1). Here is how one can perform this standardization with mutate:

mutate(
  snails,
  stdSize  = (size  - min(size))  / (max(size)  - min(size)),
  stdShape = (shape - min(shape)) / (max(shape) - min(shape))
)

# A tibble: 223 × 6
   habitat species      size  shape stdSize stdShape
   <chr>   <chr>       <dbl>  <dbl>   <dbl>    <dbl>
 1 humid   ustulatus    17.1 -0.029  0.223     0.311
 2 humid   ustulatus    20.1 -0.001  0.361     0.409
 3 humid   ustulatus    16.3  0.014  0.188     0.462
 4 arid    calvus       13.7 -0.043  0.0668    0.262
 5 humid   nux          21.9 -0.042  0.447     0.266
 6 humid   ustulatus    16.8 -0.023  0.212     0.332
 7 humid   ustulatus    19.2  0.014  0.319     0.462
 8 humid   ustulatus    16.0  0.042  0.173     0.559
 9 arid    galapaganus  18.9  0.011  0.307     0.451
10 humid   nux          26.6  0      0.665     0.413
# ℹ 213 more rows
…
(Note: the numbers in front of the rows in the output generated by tibbles always pertain to the row numbers of the current table, not the one from which they were created. So the row labels 1, 2, 3 above simply enumerate the rows of the sliced data. The actual rows still correspond to rows 1, 2, and 5 in the original snails.)

5.1.6 arrange

This function rearranges the rows of the data, in increasing order of the column given as the second argument. For example, to arrange in increasing order of size, we write:

arrange(snails, size)

# A tibble: 223 × 4
   habitat species  size  shape
   <chr>   <chr>   <dbl>  <dbl>
 1 arid    calvus   12.3 -0.019
 2 arid    calvus   12.9 -0.039
 3 arid    calvus   13.5 -0.012
 4 arid    calvus   13.7 -0.018
 5 arid    calvus   13.7 -0.043
 6 arid    calvus   13.9  0.01 
 7 arid    calvus   14.1 -0.027
 8 arid    calvus   14.1 -0.016
 9 arid    calvus   14.3 -0.011
10 arid    calvus   14.4  0.002
# ℹ 213 more rows

To arrange in decreasing order, there is a small helper function called desc. Arranging by desc(size) instead of size will arrange the rows in decreasing order of size:

arrange(snails, desc(size))

# A tibble: 223 × 4
   habitat species       size  shape
   <chr>   <chr>        <dbl>  <dbl>
 1 humid   unifasciatus  33.8 -0.07 
 2 humid   unifasciatus  32.0 -0.087
 3 humid   unifasciatus  31.9 -0.071
 4 humid   unifasciatus  31.7 -0.115
 5 humid   unifasciatus  30.9 -0.074
 6 humid   nux           29.2 -0.01 
 7 humid   unifasciatus  28.8 -0.075
 8 humid   unifasciatus  28.5 -0.088
 9 humid   nux           27.7 -0.05 
10 humid   unifasciatus  27.7 -0.047
# ℹ 213 more rows

It is also perfectly possible to arrange by a column whose type is character string. In that case, the system will sort the rows in alphabetical order—or reverse alphabetical order in case desc is applied. For example, to sort in alphabetical order of species names:

arrange(snails, species)

# A tibble: 223 × 4
   habitat species  size  shape
   <chr>   <chr>   <dbl>  <dbl>
 1 arid    calvus   13.7 -0.043
 2 arid    calvus   17.9 -0.024
 3 arid    calvus   13.9  0.01 
 4 arid    calvus   16.5 -0.004
 5 arid    calvus   16.6 -0.006
 6 arid    calvus   16.1  0.01 
 7 arid    calvus   18.2 -0.003
 8 arid    calvus   12.9 -0.039
 9 arid    calvus   17.3  0.002
10 arid    calvus   14.1 -0.027
# ℹ 213 more rows

And to sort in reverse alphabetical order:

arrange(snails, desc(species))

# A tibble: 223 × 4
   habitat species    size  shape
   <chr>   <chr>     <dbl>  <dbl>
 1 humid   ustulatus  17.1 -0.029
 2 humid   ustulatus  20.1 -0.001
 3 humid   ustulatus  16.3  0.014
 4 humid   ustulatus  16.8 -0.023
 5 humid   ustulatus  19.2  0.014
 6 humid   ustulatus  16.0  0.042
 7 humid   ustulatus  15.4 -0.016
 8 humid   ustulatus  16.3 -0.017
 9 humid   ustulatus  16.7 -0.034
10 humid   ustulatus  17.0 -0.018
# ℹ 213 more rows

Notice that when we sort the rows by species, there are many ties—rows with the same value of species. In those cases, arrange will not be able to decide which rows should come earlier, and so any ordering that was present before invoking arrange will be retained. In case we would like to break the ties, we can give further sorting variables, as the third, fourth, etc. arguments to arrange. To sort the data by species, and to resolve ties in order of increasing size, we write:

arrange(snails, species, size)

# A tibble: 223 × 4
   habitat species  size  shape
   <chr>   <chr>   <dbl>  <dbl>
 1 arid    calvus   12.3 -0.019
 2 arid    calvus   12.9 -0.039
 3 arid    calvus   13.5 -0.012
 4 arid    calvus   13.7 -0.018
 5 arid    calvus   13.7 -0.043
 6 arid    calvus   13.9  0.01 
 7 arid    calvus   14.1 -0.027
 8 arid    calvus   14.1 -0.016
 9 arid    calvus   14.3 -0.011
10 arid    calvus   14.4  0.002
# ℹ 213 more rows
…
