7 Creating publication-grade figures – Introduction to data analysis and visualization with R
…
Here we will learn how to create accessible, publication-quality scientific graphs in a simple way. We do this using the R package ggplot2 which is a standard part of the tidyverse. The ggplot2 package follows a very special philosophy for creating figures that was originally proposed by Leland Wilkinson (2006). The essence of this view is that, just like the grammar of sentences, graphs have fixed “grammatical” components whose specification defines the plot. The grand idea is that the data ought not be changed in order to display it in different formats. For instance, the same data should be possible to represent either as a box plot, or as a histogram, without changing their format.

This last claim needs to be qualified somewhat. It is more accurate to say that one should not need to change the data as long as they are in tidy format. As a reminder, “tidy data” means that every variable is in its own column, and every observation is in its own row (Section 6.4). In case the data are not tidy, one should first wrangle them into such form, for example by using pivot_longer. While this step is not always required (especially for simpler graphs), it can be very useful to tidy the data before analyzing and plotting them when working with larger, more complex datasets.

7.2 Basic ggplot2 usage

To see how ggplot2 works, let us load tidyverse, and then use the Galápagos land snail dataset to create some figures. As a reminder, here is what the data look like:

library(tidyverse)

snails <- read_delim("island-FL.csv", delim = ",")
print(snails)

# A tibble: 223 × 4
   habitat species      size  shape
   <chr>   <chr>       <dbl>  <dbl>
 1 humid   ustulatus    17.1 -0.029
 2 humid   ustulatus    20.1 -0.001
 3 humid   ustulatus    16.3  0.014
 4 arid    calvus       13.7 -0.043
 5 humid   nux          21.9 -0.042
 6 humid   ustulatus    16.8 -0.023
 7 humid   ustulatus    19.2  0.014
 8 humid   ustulatus    16.0  0.042
 9 arid    galapaganus  18.9  0.011
10 humid   nux          26.6  0    
# ℹ 213 more rows
…
