Introduction to data analysis and visualization with R - 8 Some further plotting options; introducing factors
…
8  Some further plotting options; introducing factors

In this chapter we look at adding themes to out plots, manipulating scales (x- and y-axes, color, fill, and so on), faceting to create subplots within a bigger plot, and the plotting of summaries. We keep working with the land snail data:

library(tidyverse)

snails <- read_delim("island-FL.csv", delim = ",")
print(snails)

# A tibble: 223 × 4
   habitat species      size  shape
   <chr>   <chr>       <dbl>  <dbl>
 1 humid   ustulatus    17.1 -0.029
 2 humid   ustulatus    20.1 -0.001
 3 humid   ustulatus    16.3  0.014
 4 arid    calvus       13.7 -0.043
 5 humid   nux          21.9 -0.042
 6 humid   ustulatus    16.8 -0.023
 7 humid   ustulatus    19.2  0.014
 8 humid   ustulatus    16.0  0.042
 9 arid    galapaganus  18.9  0.011
10 humid   nux          26.6  0    
# ℹ 213 more rows
…
In this particular case, one can argue that this way of displaying the data is better, because it makes the two shell shape distributions share the same x-axis. This makes them directly comparable. Thus, it is immediately obvious that shell shapes are larger in the arid than in the humid regions, which is not immediately visible when the facets are next to one another.

It is also possible to create facets where two, instead of just one, variables control what goes in each facet. The first variable then controls what gets displayed in the rows, the other controls what gets displayed in the columns. To illustrate how to make such a two-dimensional grid of facets, let us first apply pivot_longer to the snails dataset:

snails |>
  pivot_longer(cols = size | shape,
               names_to = "trait",
               values_to = "value")

# A tibble: 446 × 4
   habitat species   trait  value
   <chr>   <chr>     <chr>  <dbl>
 1 humid   ustulatus size  17.1  
 2 humid   ustulatus shape -0.029
 3 humid   ustulatus size  20.1  
 4 humid   ustulatus shape -0.001
 5 humid   ustulatus size  16.3  
 6 humid   ustulatus shape  0.014
 7 arid    calvus    size  13.7  
 8 arid    calvus    shape -0.043
 9 humid   nux       size  21.9  
10 humid   nux       shape -0.042
# ℹ 436 more rows
…
