20 Two-way ANOVA and the Scheirer–Ray–Hare test – Introduction to data analysis and visualization with R
…
Plant (a unique identifier for each plant individual),

Type (either Quebec or Mississippi depending on the origin of the plant),

Treatment (whether the plant individual was chilled or nonchilled for the experiment),

conc (ambient carbon dioxide concentration),

uptake (carbon dioxide uptake rate by the plant).

library(tidyverse)
as_tibble(CO2)

# A tibble: 84 × 5
   Plant Type   Treatment   conc uptake
   <ord> <fct>  <fct>      <dbl>  <dbl>
 1 Qn1   Quebec nonchilled    95   16  
 2 Qn1   Quebec nonchilled   175   30.4
 3 Qn1   Quebec nonchilled   250   34.8
 4 Qn1   Quebec nonchilled   350   37.2
 5 Qn1   Quebec nonchilled   500   35.3
 6 Qn1   Quebec nonchilled   675   39.2
 7 Qn1   Quebec nonchilled  1000   39.7
 8 Qn2   Quebec nonchilled    95   13.6
 9 Qn2   Quebec nonchilled   175   27.3
10 Qn2   Quebec nonchilled   250   37.1
# ℹ 74 more rows
…
