Introduction to data analysis and visualization with R - 16 More general linear models; nonlinear regression
…
16  More general linear models; nonlinear regression

16.1 Combining categorical and continuous variables in linear models

So far we have used at most two predictors when dealing with linear models (lm). This was in Chapter 15, where we looked the effects of two categorical variables, as well as their interaction. Chapter 13 introduced the idea of using a continuous, instead of a categorical, predictor. But we have not been combining these.

In fact, one can build arbitrarily complicated linear models from an arbitrary combination of continuous and categorical variables, and their interactions. Let us consider the built-in CO2 dataset as an example, which was already used before in an exercise (Section 15.3). Briefly, the data contain measurements from an experiment on the cold tolerance of the grass species Echinochloa crus-galli. The dataset has five columns: Plant (a unique identifier for each plant individual), Type (either Quebec or Mississippi depending on the origin of the plant), Treatment (whether the plant individual was chilled or nonchilled for the experiment), conc (ambient carbon dioxide concentration), and uptake (carbon dioxide uptake rate by the plant).

library(tidyverse)
as_tibble(CO2)

# A tibble: 84 × 5
   Plant Type   Treatment   conc uptake
   <ord> <fct>  <fct>      <dbl>  <dbl>
 1 Qn1   Quebec nonchilled    95   16  
 2 Qn1   Quebec nonchilled   175   30.4
 3 Qn1   Quebec nonchilled   250   34.8
 4 Qn1   Quebec nonchilled   350   37.2
 5 Qn1   Quebec nonchilled   500   35.3
 6 Qn1   Quebec nonchilled   675   39.2
 7 Qn1   Quebec nonchilled  1000   39.7
 8 Qn2   Quebec nonchilled    95   13.6
 9 Qn2   Quebec nonchilled   175   27.3
10 Qn2   Quebec nonchilled   250   37.1
# ℹ 74 more rows
…
