Introduction to data analysis and visualization with R - 17 Nested data and multiple analysis
…
17  Nested data and multiple analysis

17.1 Motivating example

This chapter is on performing statistical (or other) analyses en masse. To motivate the problem, let us start from a dataset, fruit_fly_wings.csv, that has been adapted from Bolstad et al. (2015):

library(tidyverse)

fly <- read_csv("fruit_fly_wings.csv")
print(fly)

# A tibble: 10,327 × 6
   Species   ID          Date      Sex   WingSize L2Length
   <chr>     <chr>       <chr>     <chr>    <dbl>    <dbl>
 1 D_acutila ACU1006.TIF 24_Jul_01 F        0.131    0.497
 2 D_acutila ACU1009.TIF 24_Jul_01 F        0.136    0.488
 3 D_acutila ACU1010.TIF 24_Jul_01 F        0.195    0.540
 4 D_acutila ACU1013.TIF 24_Jul_01 F        0.277    0.646
 5 D_acutila ACU1018.TIF 24_Jul_01 F        0.152    0.498
 6 D_acutila ACU1021.TIF 24_Jul_01 F        0.175    0.492
 7 D_acutila ACU1048.TIF 24_Jul_01 F        0.230    0.600
 8 D_acutila ACU1049.TIF 24_Jul_01 F        0.174    0.546
 9 D_acutila ACU1054.TIF 05_Sep_01 F        0.108    0.429
10 D_acutila ACU1059.TIF 05_Sep_01 F        0.205    0.580
# ℹ 10,317 more rows
…
Looking at this figure, it does appear as if females often had larger wings than males within the same species. The main question in this chapter is how we can test this—for instance, how would it be possible to perform a Wilcoxon rank sum test for all 55 species in the data?

17.2 Nested data frames

We are by now used to the idea that the columns of tibbles can hold numbers, character strings, logical values, or even factors. But here is an interesting question: can a column of a tibble hold other tibbles?

The short answer is yes. The somewhat longer answer is that this is possible, but not directly so. Instead, one has to make the column into a list (Section 15.2.1).1 While this could be done by hand using the list function, there are other options in the tidyverse which facilitate creating tibbles which have other tibbles in their columns. One of these is called nest. This function receives a name first, which will become the name of the newly-created column holding the sub-tibbles. Then, after an equality sign, one lists the columns, in a vector, which one would like to package into those sub-tibbles. For example, to keep Species as a separate column and wrap everything else into sub-tibbles, we can do:

fly |> nest(data = c(ID, Date, Sex, WingSize, L2Length))

# A tibble: 55 × 2
   Species      data              
   <chr>        <list>            
 1 D_acutila    <tibble [205 × 5]>
 2 D_algonqu    <tibble [237 × 5]>
 3 D_texana     <tibble [215 × 5]>
 4 Z_Sg.Anaprio <tibble [200 × 5]>
 5 D_athabasca  <tibble [79 × 5]> 
 6 D_bifasci    <tibble [217 × 5]>
 7 D_busckii    <tibble [105 × 5]>
 8 I_crucige    <tibble [211 × 5]>
 9 Det_nigro    <tibble [15 × 5]> 
10 H_duncani    <tibble [219 × 5]>
# ℹ 45 more rows

What do we see? We ended up with a tibble that has two columns. One is Species and has type character string. The other is data and has the type of list, as indicated by the <list> tag. The entries in this column are tibbles, with varying numbers of rows (as many as the number of individuals for the given species), and five columns; namely, those that we specified we wanted to nest. We can check and see what is inside these tibbles. For example, the contents of the first row (species: D. acutila) are:

fly |>
  nest(data = c(ID, Date, Sex, WingSize, L2Length)) |>
  pull(data) |> # Get contents of just the "data" column
  pluck(1) # Take the first of all those tibbles

# A tibble: 205 × 5
   ID          Date      Sex   WingSize L2Length
   <chr>       <chr>     <chr>    <dbl>    <dbl>
 1 ACU1006.TIF 24_Jul_01 F        0.131    0.497
 2 ACU1009.TIF 24_Jul_01 F        0.136    0.488
 3 ACU1010.TIF 24_Jul_01 F        0.195    0.540
 4 ACU1013.TIF 24_Jul_01 F        0.277    0.646
 5 ACU1018.TIF 24_Jul_01 F        0.152    0.498
 6 ACU1021.TIF 24_Jul_01 F        0.175    0.492
 7 ACU1048.TIF 24_Jul_01 F        0.230    0.600
 8 ACU1049.TIF 24_Jul_01 F        0.174    0.546
 9 ACU1054.TIF 05_Sep_01 F        0.108    0.429
10 ACU1059.TIF 05_Sep_01 F        0.205    0.580
# ℹ 195 more rows

So this sub-table contains the information that pertains to just D. acutila individuals.

When choosing which columns to wrap into sub-tibbles with nest, all the tidy selection conventions and functionalities apply that one can use with the select function (Section 5.1.1). So the above nesting could be equivalently and more simply be performed with:

fly |> nest(data = !Species)

# A tibble: 55 × 2
   Species      data              
   <chr>        <list>            
 1 D_acutila    <tibble [205 × 5]>
 2 D_algonqu    <tibble [237 × 5]>
 3 D_texana     <tibble [215 × 5]>
 4 Z_Sg.Anaprio <tibble [200 × 5]>
 5 D_athabasca  <tibble [79 × 5]> 
 6 D_bifasci    <tibble [217 × 5]>
 7 D_busckii    <tibble [105 × 5]>
 8 I_crucige    <tibble [211 × 5]>
 9 Det_nigro    <tibble [15 × 5]> 
10 H_duncani    <tibble [219 × 5]>
# ℹ 45 more rows

That is: apply the nesting to all columns that are not called Species. This can be used in more complicated cases as well. For example, if we wish to nest data pertaining to particular species-sex combinations, we can do the following:

fly |> nest(data = !Species & !Sex)

# A tibble: 110 × 3
   Species      Sex   data              
   <chr>        <chr> <list>            
 1 D_acutila    F     <tibble [104 × 4]>
 2 D_acutila    M     <tibble [101 × 4]>
 3 D_algonqu    F     <tibble [144 × 4]>
 4 D_algonqu    M     <tibble [93 × 4]> 
 5 D_texana     F     <tibble [108 × 4]>
 6 D_texana     M     <tibble [107 × 4]>
 7 Z_Sg.Anaprio F     <tibble [95 × 4]> 
 8 Z_Sg.Anaprio M     <tibble [105 × 4]>
 9 D_athabasca  F     <tibble [20 × 4]> 
10 D_athabasca  M     <tibble [59 × 4]> 
# ℹ 100 more rows

where nest(data = !Species & !Sex) (nest all columns that are not Species and not Sex) is equivalent to the longer nest(data = c(ID, Date, WingSize, L2Length)).

Finally, columns holding nested data can be unnested, meaning that their contents are expanded back into the original data frame. The function to do this with is called unnest:

fly |> nest(data = !Species & !Sex) |> unnest(data)

# A tibble: 10,327 × 6
   Species   Sex   ID          Date      WingSize L2Length
   <chr>     <chr> <chr>       <chr>        <dbl>    <dbl>
 1 D_acutila F     ACU1006.TIF 24_Jul_01    0.131    0.497
 2 D_acutila F     ACU1009.TIF 24_Jul_01    0.136    0.488
 3 D_acutila F     ACU1010.TIF 24_Jul_01    0.195    0.540
 4 D_acutila F     ACU1013.TIF 24_Jul_01    0.277    0.646
 5 D_acutila F     ACU1018.TIF 24_Jul_01    0.152    0.498
 6 D_acutila F     ACU1021.TIF 24_Jul_01    0.175    0.492
 7 D_acutila F     ACU1048.TIF 24_Jul_01    0.230    0.600
 8 D_acutila F     ACU1049.TIF 24_Jul_01    0.174    0.546
 9 D_acutila F     ACU1054.TIF 05_Sep_01    0.108    0.429
10 D_acutila F     ACU1059.TIF 05_Sep_01    0.205    0.580
# ℹ 10,317 more rows

17.3 Performing statistical tests using nested data

How can we test for all 55 fly species in this dataset whether there is a significant difference between average male and female wing lengths? The answer is to first nest the data using fly |> nest(data = !Species), so that we end up with a table which has one row per each species. We then need to run a Wilcoxon rank sum test on each of them. But this we know how to do from Chapter 16: we can rely on the map function.

fly |>
  nest(data = !Species) |>
  mutate(test = map(data, function(x) wilcox.test(L2Length ~ Sex, data = x)))

# A tibble: 55 × 3
   Species      data               test   
   <chr>        <list>             <list> 
 1 D_acutila    <tibble [205 × 5]> <htest>
 2 D_algonqu    <tibble [237 × 5]> <htest>
 3 D_texana     <tibble [215 × 5]> <htest>
 4 Z_Sg.Anaprio <tibble [200 × 5]> <htest>
 5 D_athabasca  <tibble [79 × 5]>  <htest>
 6 D_bifasci    <tibble [217 × 5]> <htest>
 7 D_busckii    <tibble [105 × 5]> <htest>
 8 I_crucige    <tibble [211 × 5]> <htest>
 9 Det_nigro    <tibble [15 × 5]>  <htest>
10 H_duncani    <tibble [219 × 5]> <htest>
# ℹ 45 more rows
…
# A tibble: 1 × 7
  estimate statistic   p.value conf.low conf.high method             alternative
     <dbl>     <dbl>     <dbl>    <dbl>     <dbl> <chr>              <chr>      
1   0.0866  16695507 2.54e-109   0.0791    0.0942 Wilcoxon rank sum… two.sided  

So we can insert a step into our analysis pipeline which converts the test column into a list of data frames:

fly |>
  nest(data = !Species) |>
  mutate(test = map(data, function(x) wilcox.test(L2Length~Sex, data=x))) |>
  mutate(test = map(test, tidy)) |>
  unnest(test)

# A tibble: 55 × 6
   Species      data               statistic  p.value method         alternative
   <chr>        <list>                 <dbl>    <dbl> <chr>          <chr>      
 1 D_acutila    <tibble [205 × 5]>      9640 5.03e-25 Wilcoxon rank… two.sided  
 2 D_algonqu    <tibble [237 × 5]>     12494 2.34e-29 Wilcoxon rank… two.sided  
 3 D_texana     <tibble [215 × 5]>      9189 7.55e-14 Wilcoxon rank… two.sided  
 4 Z_Sg.Anaprio <tibble [200 × 5]>      6330 1.03e- 3 Wilcoxon rank… two.sided  
 5 D_athabasca  <tibble [79 × 5]>       1116 3.13e- 9 Wilcoxon rank… two.sided  
 6 D_bifasci    <tibble [217 × 5]>     11447 2.56e-33 Wilcoxon rank… two.sided  
 7 D_busckii    <tibble [105 × 5]>      1654 7.63e- 2 Wilcoxon rank… two.sided  
 8 I_crucige    <tibble [211 × 5]>      5238 4.63e- 1 Wilcoxon rank… two.sided  
 9 Det_nigro    <tibble [15 × 5]>         20 8.51e- 1 Wilcoxon rank… two.sided  
10 H_duncani    <tibble [219 × 5]>     10195 2.25e-19 Wilcoxon rank… two.sided  
# ℹ 45 more rows
…
